1.082143,18
1.082147,2698
1.08215,4842
1.166683,5914
1.166717,6986
1.166719,8058
1.166722,9130
1.166724,10202
1.166728,11274
1.166731,12346
1.166733,13418
1.166737,14490
1.166739,15562
1.248089,16634
1.248116,17706
1.248532,18778
1.248542,19850
1.248547,20922
1.24855,21994
1.248553,23066
1.248556,24138
1.248558,25210
1.248561,26282
1.248564,27354
1.248567,28426
1.249479,29498
1.249487,30570
1.250114,31642
1.250121,32714
1.250124,33786
1.250126,34858
1.250129,35930
1.250133,36466
1.250135,37002
1.32996,38074
1.329993,39146
1.329998,40218
1.330001,41290
1.330004,42362
1.330007,43434
1.33001,44506
1.330014,45578
1.330017,46650
1.330019,47722
1.330022,48794
1.330025,49866
1.330027,50938
1.33003,52010
1.330032,53082
1.330036,54154
1.330039,55226
1.330041,56298
1.330044,57370
1.330046,58442
1.330049,59514
1.330051,60586
1.330054,61658
1.330057,62730
1.33006,63802
1.330062,64874
1.330698,65946
1.330704,67018
1.332668,68090
1.332676,69162
1.332679,70234
1.332682,71306
1.332684,72378
1.332687,73450
1.33269,74522
1.332692,75594
1.333652,76666
1.33366,77738
1.333669,78810
1.333672,79882
1.412212,80954
1.412245,82026
1.412248,83098
1.412251,84170
1.412254,85242
1.412256,86314
1.412259,87386
1.412262,88458
1.412265,89530
1.41276,90602
1.412766,91674
1.412769,92746
1.413711,93818
1.413718,94890
1.413721,95962
1.413724,97034
1.413726,98106
1.413729,99178
1.414699,99714
1.414705,100091
